…
### 10. Часто вредоносное программное обеспечение использует DNS канал в качестве канала управления, периодически отправляя запросы на подконтрольный злоумышленникам DNS сервер. По периодическим запросам на один и тот же домен можно выявить скрытый DNS канал. Есть ли такие IP адреса в исследуемом датасете?

    > suspicious_ips <- dns_data_clean %>%
    +     count(id.orig_h, query, sort = TRUE) %>%
    +     filter(n > 10) %>%  # частые запросы на один домен
    +     arrange(desc(n))
    > print(suspicious_ips)
    # A tibble: 3,015 × 3
       id.orig_h       query                           n
       <chr>           <chr>                       <int>
     1 10.10.117.210   teredo.ipv6.microsoft.com   27425
     2 192.168.202.93  www.apple.com               10852
     3 10.10.117.210   tools.google.com            10179
     4 192.168.202.83  44.206.168.192.in-addr.arpa  7248
     5 192.168.202.76  HPE8AA67                     6929
     6 192.168.202.93  time.apple.com               6038
     7 192.168.203.63  imap.gmail.com               5543
     8 192.168.202.76  WPAD                         5175
     9 192.168.202.103 api.twitter.com              4163
    10 192.168.202.103 api.facebook.com             4137
    # ℹ 3,005 more rows
    # ℹ Use `print(n = ...)` to see more rows
…
