…
### 7. Подсчитать ИМТ (индекс массы тела) для всех персонажей. ИМТ подсчитать по формуле
```
> starwars_bmi <- starwars %>% mutate(bmi = mass / (height/100)^2) %>% select(name, height, mass, bmi)
> starwars_bmi
# A tibble: 87 × 4
   name               height  mass   bmi
   <chr>               <int> <dbl> <dbl>
 1 Luke Skywalker        172    77  26.0
 2 C-3PO                 167    75  26.9
 3 R2-D2                  96    32  34.7
 4 Darth Vader           202   136  33.3
 5 Leia Organa           150    49  21.8
 6 Owen Lars             178   120  37.9
 7 Beru Whitesun Lars    165    75  27.5
 8 R5-D4                  97    32  34.0
 9 Biggs Darklighter     183    84  25.1
10 Obi-Wan Kenobi        182    77  23.2
# ℹ 77 more rows
# ℹ Use `print(n = ...)` to see more rows
```

### 8. Найти 10 самых “вытянутых” персонажей. “Вытянутость” оценить по отношению массы (mass) к росту (height) персонажей
```
> starwars %>% mutate(stretch_ratio = mass / height) %>% select(name, height, mass, stretch_ratio) %>% arrange(desc(stretch_ratio)) 
# A tibble: 87 × 4
   name                  height  mass stretch_ratio
   <chr>                  <int> <dbl>         <dbl>
 1 Jabba Desilijic Tiure    175  1358         7.76 
 2 Grievous                 216   159         0.736
 3 IG-88                    200   140         0.7  
 4 Owen Lars                178   120         0.674
 5 Darth Vader              202   136         0.673
 6 Jek Tono Porkins         180   110         0.611
 7 Bossk                    190   113         0.595
 8 Tarfful                  234   136         0.581
 9 Dexter Jettster          198   102         0.515
10 Chewbacca                228   112         0.491
# ℹ 77 more rows
# ℹ Use `print(n = ...)` to see more rows
```
…
